…
```{=html}
<div style="width: 100% ; height: 400px ; text-align: center; box-sizing: border-box; -moz-box-sizing: border-box; -webkit-box-sizing: border-box;" class="muted well">Shiny applications not supported in static R Markdown documents</div>
```


## what is the most commonly occuring artist

```r
spotify %>% 
  count(artist_name) %>% 
  arrange(desc(n))
```

```
## # A tibble: 41 × 2
##    artist_name        n
##    <chr>          <int>
##  1 The Weeknd         4
##  2 Taylor Swift       3
##  3 Bad Bunny          2
##  4 Bizarrap           2
##  5 SZA                2
##  6 d4vd               2
##  7 Arctic Monkeys     1
##  8 David Guetta       1
##  9 David Kushner      1
## 10 Doja Cat           1
## # ℹ 31 more rows
```
…
