…
```r
spotify2023
```

```
## # A tibble: 50 × 19
##    artist_name    track_name  is_explicit album_release_date genres danceability
##    <chr>          <chr>       <lgl>       <date>             <chr>         <dbl>
##  1 Miley Cyrus    Flowers     FALSE       2023-08-18         ['pop…        0.706
##  2 SZA            Kill Bill   FALSE       2022-12-08         ['pop…        0.644
##  3 Harry Styles   As It Was   FALSE       2022-05-20         ['pop…        0.52 
##  4 Jung Kook      Seven (fea… TRUE        2023-11-03         ['k-p…        0.79 
##  5 Eslabon Armado Ella Baila… FALSE       2023-04-28         ['cor…        0.668
##  6 Taylor Swift   Cruel Summ… FALSE       2019-08-23         ['pop…        0.552
##  7 Metro Boomin   Creepin' (… TRUE        2022-12-02         ['rap…        0.715
##  8 Rema           Calm Down … FALSE       2023-04-27         ['afr…        0.799
##  9 Bizarrap       Shakira: B… FALSE       2023-01-11         ['arg…        0.778
## 10 Taylor Swift   Anti-Hero   FALSE       2022-10-21         ['pop…        0.637
## # ℹ 40 more rows
## # ℹ 13 more variables: valence <dbl>, energy <dbl>, loudness <dbl>,
## #   acousticness <dbl>, instrumentalness <dbl>, liveness <dbl>,
## #   speechiness <dbl>, key <dbl>, tempo <dbl>, mode <dbl>, duration_ms <dbl>,
## #   time_signature <dbl>, popularity <dbl>
```




```r
spotify2023 %>% 
  pivot_wider(names_from = "genres", #the observations under key will become new columns
              values_from = "is_explicit")
```

```
## # A tibble: 50 × 52
##    artist_name    track_name      album_release_date danceability valence energy
##    <chr>          <chr>           <date>                    <dbl>   <dbl>  <dbl>
##  1 Miley Cyrus    Flowers         2023-08-18                0.706   0.632  0.691
##  2 SZA            Kill Bill       2022-12-08                0.644   0.418  0.735
##  3 Harry Styles   As It Was       2022-05-20                0.52    0.662  0.731
##  4 Jung Kook      Seven (feat. L… 2023-11-03                0.79    0.872  0.831
##  5 Eslabon Armado Ella Baila Sola 2023-04-28                0.668   0.834  0.758
##  6 Taylor Swift   Cruel Summer    2019-08-23                0.552   0.564  0.702
##  7 Metro Boomin   Creepin' (with… 2022-12-02                0.715   0.172  0.62 
##  8 Rema           Calm Down (wit… 2023-04-27                0.799   0.811  0.802
##  9 Bizarrap       Shakira: Bzrp … 2023-01-11                0.778   0.498  0.632
## 10 Taylor Swift   Anti-Hero       2022-10-21                0.637   0.533  0.643
## # ℹ 40 more rows
## # ℹ 46 more variables: loudness <dbl>, acousticness <dbl>,
## #   instrumentalness <dbl>, liveness <dbl>, speechiness <dbl>, key <dbl>,
## #   tempo <dbl>, mode <dbl>, duration_ms <dbl>, time_signature <dbl>,
## #   popularity <dbl>, `['pop']` <lgl>, `['pop', 'r&b', 'rap']` <lgl>,
## #   `['k-pop']` <lgl>,
## #   `['corrido', 'corridos tumbados', 'sad sierreno', 'sierreno']` <lgl>, …
```
…
```r
pop <- which(genrevector %in% c("'pop'"))
```



```r
spotify2023 %>%
  mutate(pop = ifelse("'pop'" %in% genres, TRUE, FALSE))
```

```
## # A tibble: 50 × 20
##    artist_name    track_name  is_explicit album_release_date genres danceability
##    <chr>          <chr>       <lgl>       <date>             <chr>         <dbl>
##  1 Miley Cyrus    Flowers     FALSE       2023-08-18         'pop'         0.706
##  2 SZA            Kill Bill   FALSE       2022-12-08         'pop'…        0.644
##  3 Harry Styles   As It Was   FALSE       2022-05-20         'pop'         0.52 
##  4 Jung Kook      Seven (fea… TRUE        2023-11-03         'k-po…        0.79 
##  5 Eslabon Armado Ella Baila… FALSE       2023-04-28         'corr…        0.668
##  6 Taylor Swift   Cruel Summ… FALSE       2019-08-23         'pop'         0.552
##  7 Metro Boomin   Creepin' (… TRUE        2022-12-02         'rap'         0.715
##  8 Rema           Calm Down … FALSE       2023-04-27         'afro…        0.799
##  9 Bizarrap       Shakira: B… FALSE       2023-01-11         'arge…        0.778
## 10 Taylor Swift   Anti-Hero   FALSE       2022-10-21         'pop'         0.637
## # ℹ 40 more rows
## # ℹ 14 more variables: valence <dbl>, energy <dbl>, loudness <dbl>,
## #   acousticness <dbl>, instrumentalness <dbl>, liveness <dbl>,
## #   speechiness <dbl>, key <dbl>, tempo <dbl>, mode <dbl>, duration_ms <dbl>,
## #   time_signature <dbl>, popularity <dbl>, pop <lgl>
```
…
